{
	"nodes": [ 
		{"id":"0"},
		{"id":"1"},
		{"id":"2"},
		{"id":"3"},
		{"id":"4"},
		{"id":"5"},
		{"id":"6"},
		{"id":"7"},
		{"id":"8"},
		{"id":"9"},
		{"id":"10"},
		{"id":"11"},
		{"id":"12"},
		{"id":"13"},
		{"id":"14"},
		{"id":"15"},
		{"id":"16"},
		{"id":"17"},
		{"id":"18"},
		{"id":"19"},
		{"id":"20"},
		{"id":"21"},
		{"id":"22"},
		{"id":"23"},
		{"id":"24"},
		{"id":"25"},
		{"id":"26"},
		{"id":"27"},
		{"id":"28"},
		{"id":"29"},
		{"id":"30"},
		{"id":"31"},
		{"id":"32"},
		{"id":"33"},
		{"id":"34"},
		{"id":"35"},
		{"id":"36"},
		{"id":"37"},
		{"id":"38"},
		{"id":"39"},
		{"id":"40"},
		{"id":"41"},
		{"id":"42"},
		{"id":"43"},
		{"id":"44"},
		{"id":"45"},
		{"id":"46"},
		{"id":"47"},
		{"id":"48"},
		{"id":"49"},
		{"id":"50"},
		{"id":"51"},
		{"id":"52"},
		{"id":"53"},
		{"id":"54"},
		{"id":"55"},
		{"id":"56"},
		{"id":"57"},
		{"id":"58"},
		{"id":"59"},
		{"id":"60"},
		{"id":"61"},
		{"id":"62"},
		{"id":"63"},
		{"id":"64"},
		{"id":"65"},
		{"id":"66"},
		{"id":"67"},
		{"id":"68"},
		{"id":"69"},
		{"id":"70"},
		{"id":"71"},
		{"id":"72"},
		{"id":"73"},
		{"id":"74"},
		{"id":"75"},
		{"id":"76"},
		{"id":"77"},
		{"id":"78"},
		{"id":"79"},
		{"id":"80"},
		{"id":"81"},
		{"id":"82"},
		{"id":"83"},
		{"id":"84"},
		{"id":"85"},
		{"id":"86"},
		{"id":"87"},
		{"id":"88"},
		{"id":"89"},
		{"id":"90"},
		{"id":"91"},
		{"id":"92"},
		{"id":"93"},
		{"id":"94"},
		{"id":"95"},
		{"id":"96"},
		{"id":"97"},
		{"id":"98"},
		{"id":"99"}
	],
	"links": [
		{"source":"0", "target":"1"},
		{"source":"0", "target":"10"},
		{"source":"1", "target":"2"},
		{"source":"1", "target":"11"},
		{"source":"2", "target":"3"},
		{"source":"2", "target":"12"},
		{"source":"3", "target":"4"},
		{"source":"3", "target":"13"},
		{"source":"4", "target":"5"},
		{"source":"4", "target":"14"},
		{"source":"5", "target":"6"},
		{"source":"5", "target":"15"},
		{"source":"6", "target":"7"},
		{"source":"6", "target":"16"},
		{"source":"7", "target":"8"},
		{"source":"7", "target":"17"},
		{"source":"8", "target":"9"},
		{"source":"8", "target":"18"},
		{"source":"9", "target":"19"},
		{"source":"10", "target":"11"},
		{"source":"10", "target":"20"},
		{"source":"11", "target":"12"},
		{"source":"11", "target":"21"},
		{"source":"12", "target":"13"},
		{"source":"12", "target":"22"},
		{"source":"13", "target":"14"},
		{"source":"13", "target":"23"},
		{"source":"14", "target":"15"},
		{"source":"14", "target":"24"},
		{"source":"15", "target":"16"},
		{"source":"15", "target":"25"},
		{"source":"16", "target":"17"},
		{"source":"16", "target":"26"},
		{"source":"17", "target":"18"},
		{"source":"17", "target":"27"},
		{"source":"18", "target":"19"},
		{"source":"18", "target":"28"},
		{"source":"19", "target":"29"},
		{"source":"20", "target":"21"},
		{"source":"20", "target":"30"},
		{"source":"21", "target":"22"},
		{"source":"21", "target":"31"},
		{"source":"22", "target":"23"},
		{"source":"22", "target":"32"},
		{"source":"23", "target":"24"},
		{"source":"23", "target":"33"},
		{"source":"24", "target":"25"},
		{"source":"24", "target":"34"},
		{"source":"25", "target":"26"},
		{"source":"25", "target":"35"},
		{"source":"26", "target":"27"},
		{"source":"26", "target":"36"},
		{"source":"27", "target":"28"},
		{"source":"27", "target":"37"},
		{"source":"28", "target":"29"},
		{"source":"28", "target":"38"},
		{"source":"29", "target":"39"},
		{"source":"30", "target":"31"},
		{"source":"30", "target":"40"},
		{"source":"31", "target":"32"},
		{"source":"31", "target":"41"},
		{"source":"32", "target":"33"},
		{"source":"32", "target":"42"},
		{"source":"33", "target":"34"},
		{"source":"33", "target":"43"},
		{"source":"34", "target":"35"},
		{"source":"34", "target":"44"},
		{"source":"35", "target":"36"},
		{"source":"35", "target":"45"},
		{"source":"36", "target":"37"},
		{"source":"36", "target":"46"},
		{"source":"37", "target":"38"},
		{"source":"37", "target":"47"},
		{"source":"38", "target":"39"},
		{"source":"38", "target":"48"},
		{"source":"39", "target":"49"},
		{"source":"40", "target":"41"},
		{"source":"40", "target":"50"},
		{"source":"41", "target":"42"},
		{"source":"41", "target":"51"},
		{"source":"42", "target":"43"},
		{"source":"42", "target":"52"},
		{"source":"43", "target":"44"},
		{"source":"43", "target":"53"},
		{"source":"44", "target":"45"},
		{"source":"44", "target":"54"},
		{"source":"45", "target":"46"},
		{"source":"45", "target":"55"},
		{"source":"46", "target":"47"},
		{"source":"46", "target":"56"},
		{"source":"47", "target":"48"},
		{"source":"47", "target":"57"},
		{"source":"48", "target":"49"},
		{"source":"48", "target":"58"},
		{"source":"49", "target":"59"},
		{"source":"50", "target":"51"},
		{"source":"50", "target":"60"},
		{"source":"51", "target":"52"},
		{"source":"51", "target":"61"},
		{"source":"52", "target":"53"},
		{"source":"52", "target":"62"},
		{"source":"53", "target":"54"},
		{"source":"53", "target":"63"},
		{"source":"54", "target":"55"},
		{"source":"54", "target":"64"},
		{"source":"55", "target":"56"},
		{"source":"55", "target":"65"},
		{"source":"56", "target":"57"},
		{"source":"56", "target":"66"},
		{"source":"57", "target":"58"},
		{"source":"57", "target":"67"},
		{"source":"58", "target":"59"},
		{"source":"58", "target":"68"},
		{"source":"59", "target":"69"},
		{"source":"60", "target":"61"},
		{"source":"60", "target":"70"},
		{"source":"61", "target":"62"},
		{"source":"61", "target":"71"},
		{"source":"62", "target":"63"},
		{"source":"62", "target":"72"},
		{"source":"63", "target":"64"},
		{"source":"63", "target":"73"},
		{"source":"64", "target":"65"},
		{"source":"64", "target":"74"},
		{"source":"65", "target":"66"},
		{"source":"65", "target":"75"},
		{"source":"66", "target":"67"},
		{"source":"66", "target":"76"},
		{"source":"67", "target":"68"},
		{"source":"67", "target":"77"},
		{"source":"68", "target":"69"},
		{"source":"68", "target":"78"},
		{"source":"69", "target":"79"},
		{"source":"70", "target":"71"},
		{"source":"70", "target":"80"},
		{"source":"71", "target":"72"},
		{"source":"71", "target":"81"},
		{"source":"72", "target":"73"},
		{"source":"72", "target":"82"},
		{"source":"73", "target":"74"},
		{"source":"73", "target":"83"},
		{"source":"74", "target":"75"},
		{"source":"74", "target":"84"},
		{"source":"75", "target":"76"},
		{"source":"75", "target":"85"},
		{"source":"76", "target":"77"},
		{"source":"76", "target":"86"},
		{"source":"77", "target":"78"},
		{"source":"77", "target":"87"},
		{"source":"78", "target":"79"},
		{"source":"78", "target":"88"},
		{"source":"79", "target":"89"},
		{"source":"80", "target":"81"},
		{"source":"80", "target":"90"},
		{"source":"81", "target":"82"},
		{"source":"81", "target":"91"},
		{"source":"82", "target":"83"},
		{"source":"82", "target":"92"},
		{"source":"83", "target":"84"},
		{"source":"83", "target":"93"},
		{"source":"84", "target":"85"},
		{"source":"84", "target":"94"},
		{"source":"85", "target":"86"},
		{"source":"85", "target":"95"},
		{"source":"86", "target":"87"},
		{"source":"86", "target":"96"},
		{"source":"87", "target":"88"},
		{"source":"87", "target":"97"},
		{"source":"88", "target":"89"},
		{"source":"88", "target":"98"},
		{"source":"89", "target":"99"},
		{"source":"90", "target":"91"},
		{"source":"91", "target":"92"},
		{"source":"92", "target":"93"},
		{"source":"93", "target":"94"},
		{"source":"94", "target":"95"},
		{"source":"95", "target":"96"},
		{"source":"96", "target":"97"},
		{"source":"97", "target":"98"},
		{"source":"98", "target":"99"}
]}
