{
	"nodes": [{"id": "A"},
			  {"id": "B"},
			  {"id": "C"},
			  {"id": "D"},
			  {"id": "E"},
			  {"id": "F"},
			  {"id": "G"},
			  {"id": "H"},
			  {"id": "I"},
			  {"id": "J"}],
	"links": [{"source": "A", "target": "B"},
			  {"source": "A", "target": "F"},
			  {"source": "B", "target": "G"},
			  {"source": "B", "target": "C"},
			  {"source": "C", "target": "H"},
			  {"source": "C", "target": "D"},
			  {"source": "D", "target": "I"},
			  {"source": "D", "target": "E"},
			  {"source": "E", "target": "J"},
			  {"source": "E", "target": "A"},
			  {"source": "F", "target": "H"},
			  {"source": "H", "target": "J"},
			  {"source": "J", "target": "G"},
			  {"source": "G", "target": "I"},
			  {"source": "I", "target": "F"}]
}
