{
	"nodes": [ 
		{"id":"0"},
		{"id":"1"},
		{"id":"2"},
		{"id":"3"},
		{"id":"4"},
		{"id":"5"},
		{"id":"6"},
		{"id":"7"},
		{"id":"8"},
		{"id":"9"},
		{"id":"10"},
		{"id":"11"},
		{"id":"12"},
		{"id":"13"},
		{"id":"14"},
		{"id":"15"},
		{"id":"16"},
		{"id":"17"},
		{"id":"18"},
		{"id":"19"},
		{"id":"20"},
		{"id":"21"},
		{"id":"22"},
		{"id":"23"},
		{"id":"24"},
		{"id":"25"},
		{"id":"26"},
		{"id":"27"},
		{"id":"28"},
		{"id":"29"},
		{"id":"30"},
		{"id":"31"},
		{"id":"32"},
		{"id":"33"},
		{"id":"34"},
		{"id":"35"},
		{"id":"36"},
		{"id":"37"},
		{"id":"38"},
		{"id":"39"},
		{"id":"40"},
		{"id":"41"},
		{"id":"42"},
		{"id":"43"},
		{"id":"44"},
		{"id":"45"},
		{"id":"46"},
		{"id":"47"},
		{"id":"48"},
		{"id":"49"}
	],
	"links": [
		{"source":"0", "target":"1"},
		{"source":"0", "target":"5"},
		{"source":"1", "target":"2"},
		{"source":"1", "target":"6"},
		{"source":"2", "target":"3"},
		{"source":"2", "target":"7"},
		{"source":"3", "target":"4"},
		{"source":"3", "target":"8"},
		{"source":"4", "target":"9"},
		{"source":"5", "target":"6"},
		{"source":"5", "target":"10"},
		{"source":"6", "target":"7"},
		{"source":"6", "target":"11"},
		{"source":"7", "target":"8"},
		{"source":"7", "target":"12"},
		{"source":"8", "target":"9"},
		{"source":"8", "target":"13"},
		{"source":"9", "target":"14"},
		{"source":"10", "target":"11"},
		{"source":"10", "target":"15"},
		{"source":"11", "target":"12"},
		{"source":"11", "target":"16"},
		{"source":"12", "target":"13"},
		{"source":"12", "target":"17"},
		{"source":"13", "target":"14"},
		{"source":"13", "target":"18"},
		{"source":"14", "target":"19"},
		{"source":"15", "target":"16"},
		{"source":"15", "target":"20"},
		{"source":"16", "target":"17"},
		{"source":"16", "target":"21"},
		{"source":"17", "target":"18"},
		{"source":"17", "target":"22"},
		{"source":"18", "target":"19"},
		{"source":"18", "target":"23"},
		{"source":"19", "target":"24"},
		{"source":"20", "target":"21"},
		{"source":"20", "target":"25"},
		{"source":"21", "target":"22"},
		{"source":"21", "target":"26"},
		{"source":"22", "target":"23"},
		{"source":"22", "target":"27"},
		{"source":"23", "target":"24"},
		{"source":"23", "target":"28"},
		{"source":"24", "target":"29"},
		{"source":"25", "target":"26"},
		{"source":"25", "target":"30"},
		{"source":"26", "target":"27"},
		{"source":"26", "target":"31"},
		{"source":"27", "target":"28"},
		{"source":"27", "target":"32"},
		{"source":"28", "target":"29"},
		{"source":"28", "target":"33"},
		{"source":"29", "target":"34"},
		{"source":"30", "target":"31"},
		{"source":"30", "target":"35"},
		{"source":"31", "target":"32"},
		{"source":"31", "target":"36"},
		{"source":"32", "target":"33"},
		{"source":"32", "target":"37"},
		{"source":"33", "target":"34"},
		{"source":"33", "target":"38"},
		{"source":"34", "target":"39"},
		{"source":"35", "target":"36"},
		{"source":"35", "target":"40"},
		{"source":"36", "target":"37"},
		{"source":"36", "target":"41"},
		{"source":"37", "target":"38"},
		{"source":"37", "target":"42"},
		{"source":"38", "target":"39"},
		{"source":"38", "target":"43"},
		{"source":"39", "target":"44"},
		{"source":"40", "target":"41"},
		{"source":"40", "target":"45"},
		{"source":"41", "target":"42"},
		{"source":"41", "target":"46"},
		{"source":"42", "target":"43"},
		{"source":"42", "target":"47"},
		{"source":"43", "target":"44"},
		{"source":"43", "target":"48"},
		{"source":"44", "target":"49"},
		{"source":"45", "target":"46"},
		{"source":"46", "target":"47"},
		{"source":"47", "target":"48"},
		{"source":"48", "target":"49"}
]}
