{
	"nodes": [{"id": "A"},
			  {"id": "B"},
			  {"id": "C"},
			  {"id": "D"},
			  {"id": "E"},
			  {"id": "F"},
			  {"id": "G"},
			  {"id": "H"},
			  {"id": "I"},
			  {"id": "J"},
			  {"id": "K"},
			  {"id": "L"},
			  {"id": "M"},
			  {"id": "N"},
			  {"id": "O"}],
	"links": [{"source": "A", "target": "B"},
			  {"source": "B", "target": "E"},
			  {"source": "B", "target": "H"},
			  {"source": "B", "target": "G"},
			  {"source": "C", "target": "E"},
			  {"source": "D", "target": "E"},
			  {"source": "E", "target": "F"},
			  {"source": "F", "target": "G"},
			  {"source": "F", "target": "J"},
			  {"source": "G", "target": "H"},
			  {"source": "G", "target": "J"},
			  {"source": "H", "target": "I"},
			  {"source": "I", "target": "J"},
			  {"source": "I", "target": "K"},
			  {"source": "J", "target": "O"},
			  {"source": "K", "target": "L"},
			  {"source": "L", "target": "M"},
			  {"source": "L", "target": "N"},
			  {"source": "M", "target": "O"}]
}
