{
	"nodes": [ 
		{"id":"0"},
		{"id":"1"},
		{"id":"2"},
		{"id":"3"},
		{"id":"4"},
		{"id":"5"},
		{"id":"6"},
		{"id":"7"},
		{"id":"8"},
		{"id":"9"},
		{"id":"10"},
		{"id":"11"},
		{"id":"12"},
		{"id":"13"},
		{"id":"14"},
		{"id":"15"}
	],
	"links": [
		{"source":"0", "target":"1"},
		{"source":"0", "target":"4"},
		{"source":"1", "target":"2"},
		{"source":"1", "target":"5"},
		{"source":"2", "target":"3"},
		{"source":"2", "target":"6"},
		{"source":"3", "target":"7"},
		{"source":"4", "target":"5"},
		{"source":"4", "target":"8"},
		{"source":"5", "target":"6"},
		{"source":"5", "target":"9"},
		{"source":"6", "target":"7"},
		{"source":"6", "target":"10"},
		{"source":"7", "target":"11"},
		{"source":"8", "target":"9"},
		{"source":"8", "target":"12"},
		{"source":"9", "target":"10"},
		{"source":"9", "target":"13"},
		{"source":"10", "target":"11"},
		{"source":"10", "target":"14"},
		{"source":"11", "target":"15"},
		{"source":"12", "target":"13"},
		{"source":"13", "target":"14"},
		{"source":"14", "target":"15"}
]}
