{
	"nodes": [ 
		{"id":"0"},
		{"id":"1"},
		{"id":"2"},
		{"id":"3"},
		{"id":"4"},
		{"id":"5"},
		{"id":"6"},
		{"id":"7"},
		{"id":"8"},
		{"id":"9"},
		{"id":"10"},
		{"id":"11"},
		{"id":"12"},
		{"id":"13"},
		{"id":"14"},
		{"id":"15"},
		{"id":"16"},
		{"id":"17"},
		{"id":"18"},
		{"id":"19"},
		{"id":"20"},
		{"id":"21"},
		{"id":"22"},
		{"id":"23"},
		{"id":"24"},
		{"id":"25"},
		{"id":"26"},
		{"id":"27"},
		{"id":"28"},
		{"id":"29"}
	],
	"links": [
		{"source":"0", "target":"9"},
		{"source":"0", "target":"1"},
		{"source":"0", "target":"10"},
		{"source":"1", "target":"2"},
		{"source":"1", "target":"11"},
		{"source":"2", "target":"3"},
		{"source":"2", "target":"12"},
		{"source":"3", "target":"4"},
		{"source":"3", "target":"13"},
		{"source":"4", "target":"5"},
		{"source":"4", "target":"14"},
		{"source":"5", "target":"6"},
		{"source":"5", "target":"15"},
		{"source":"6", "target":"7"},
		{"source":"6", "target":"16"},
		{"source":"7", "target":"8"},
		{"source":"7", "target":"17"},
		{"source":"8", "target":"9"},
		{"source":"8", "target":"18"},
		{"source":"9", "target":"19"},
		{"source":"10", "target":"19"},
		{"source":"10", "target":"11"},
		{"source":"10", "target":"20"},
		{"source":"11", "target":"12"},
		{"source":"11", "target":"21"},
		{"source":"12", "target":"13"},
		{"source":"12", "target":"22"},
		{"source":"13", "target":"14"},
		{"source":"13", "target":"23"},
		{"source":"14", "target":"15"},
		{"source":"14", "target":"24"},
		{"source":"15", "target":"16"},
		{"source":"15", "target":"25"},
		{"source":"16", "target":"17"},
		{"source":"16", "target":"26"},
		{"source":"17", "target":"18"},
		{"source":"17", "target":"27"},
		{"source":"18", "target":"19"},
		{"source":"18", "target":"28"},
		{"source":"19", "target":"29"},
		{"source":"20", "target":"29"},
		{"source":"20", "target":"21"},
		{"source":"21", "target":"22"},
		{"source":"22", "target":"23"},
		{"source":"23", "target":"24"},
		{"source":"24", "target":"25"},
		{"source":"25", "target":"26"},
		{"source":"26", "target":"27"},
		{"source":"27", "target":"28"},
		{"source":"28", "target":"29"}
]}
